{"page":1,"total":3189,"next":"http://api.popit.sinarproject.org/en/memberships?format=json&page=2","previous":null,"results":[{"id":"55537b20cd17c69a1f5b1deb","person":{"id":"545e46a25222837c2c05922c","other_names":[],"identifiers":[],"birth_date":"1951","death_date":null,"links":[],"contact_details":[],"email":null,"image":"https://sinar-malaysia.popit.mysociety.org/persons/545e46a25222837c2c05922c/image/55536878cd17c69a1f5b1de8","created_at":"2015-12-17T08:49:50.310708Z","updated_at":"2015-12-17T08:49:50.310755Z","name":"Ishak Ismail","family_name":null,"given_name":null,"additional_name":null,"honorific_prefix":null,"honorific_suffix":null,"patronymic_name":null,"sort_name":null,"gender":null,"summary":"Daughter: Irna Izura Ishak","biography":"","national_identity":null,"language_code":"en"},"person_id":"545e46a25222837c2c05922c","organization":{"id":"5362fcc219ee29270d8a9e22","parent_id":null,"founding_date":null,"dissolution_date":null,"links":[],"contact_details":[],"area":null,"image":"http://upload.wikimedia.org/wikipedia/commons/thumb/5/5f/UMNO_%28Malaysia%29.svg/640px-UMNO_%28Malaysia%29.svg.png","created_at":"2015-12-17T09:10:22.786158Z","updated_at":"2015-12-17T09:10:22.786221Z","parent":null,"name":"United Malays National Organization","classification":"Party","abstract":null,"description":null,"language_code":"en"},"organization_id":"5362fcc219ee29270d8a9e22","member":null,"member_id":null,"on_behalf_of":null,"on_behalf_of_id":null,"area":null,"area_id":null,"post":null,"post_id":null,"contact_details":[],"links":[],"start_date":"2013","end_date":null,"created_at":"2015-12-17T09:37:13.909597Z","updated_at":"2015-12-17T09:37:13.909637Z","label":null,"role":"State Assembly Representative","language_code":"en"},{"id":"53829ce3cfe2cb864f62a21e","person":{"id":"53829c7dd6f466864f2d7c17","other_names":[],"identifiers":[],"birth_date":null,"death_date":null,"links":[],"contact_details":[],"email":null,"image":"http://www.parlimen.gov.my/images/webuser/ahli/2010/raja%20ropiaah.jpg","created_at":"2015-12-16T06:05:40.371715Z","updated_at":"2015-12-16T06:05:40.371747Z","name":"Raja Ropiaah Raja Abdullah","family_name":null,"given_name":null,"additional_name":null,"honorific_prefix":null,"honorific_suffix":null,"patronymic_name":null,"sort_name":null,"gender":null,"summary":"Senator","biography":"","national_identity":null,"language_code":"en"},"person_id":"53829c7dd6f466864f2d7c17","organization":{"id":"5362fcc219ee29270d8a9e22","parent_id":null,"founding_date":null,"dissolution_date":null,"links":[],"contact_details":[],"area":null,"image":"http://upload.wikimedia.org/wikipedia/commons/thumb/5/5f/UMNO_%28Malaysia%29.svg/640px-UMNO_%28Malaysia%29.svg.png","created_at":"2015-12-17T09:10:22.786158Z","updated_at":"2015-12-17T09:10:22.786221Z","parent":null,"name":"United Malays National Organization","classification":"Party","abstract":null,"description":null,"language_code":"en"},"organization_id":"5362fcc219ee29270d8a9e22","member":null,"member_id":null,"on_behalf_of":null,"on_behalf_of_id":null,"area":null,"area_id":null,"post":null,"post_id":null,"contact_details":[],"links":[],"start_date":null,"end_date":null,"created_at":"2015-12-17T09:37:24.516590Z","updated_at":"2015-12-17T09:37:24.516644Z","label":null,"role":"","language_code":"en"},{"id":"53f348c6bc9e94541bedfa0d","person":{"id":"5377887979616fc659faa589","other_names":[],"identifiers":[],"birth_date":null,"death_date":null,"links":[],"contact_details":[],"email":null,"image":"https://upload.wikimedia.org/wikipedia/commons/thumb/a/a3/DyanasofyaDAP.jpg/800px-DyanasofyaDAP.jpg","created_at":"2015-12-16T06:05:24.577324Z","updated_at":"2015-12-16T06:05:24.577372Z","name":"Dyana Sofya Mohd Daud","family_name":null,"given_name":null,"additional_name":null,"honorific_prefix":null,"honorific_suffix":null,"patronymic_name":null,"sort_name":null,"gender":null,"summary":"is a Malaysian lawyer and a political secretary for Member of Parliament Lim Kit Siang.","biography":"","national_identity":null,"language_code":"en"},"person_id":"5377887979616fc659faa589","organization":{"id":"53631a3619ee29270d8a9e90","parent_id":null,"founding_date":null,"dissolution_date":null,"links":[],"contact_details":[],"area":null,"image":"http://upload.wikimedia.org/wikipedia/en/thumb/d/d1/Democratic_Action_Party_Logo.svg/1000px-Democratic_Action_Party_Logo.svg.png","created_at":"2015-12-17T09:10:55.628913Z","updated_at":"2015-12-17T09:10:55.628945Z","parent":null,"name":"Democratic Action Party","classification":"Party","abstract":null,"description":null,"language_code":"en"},"organization_id":"53631a3619ee29270d8a9e90","member":null,"member_id":null,"on_behalf_of":null,"on_behalf_of_id":null,"area":null,"area_id":null,"post":null,"post_id":null,"contact_details":[],"links":[],"start_date":"2012-01-01","end_date":null,"created_at":"2015-12-17T09:37:30.040885Z","updated_at":"2015-12-17T09:37:30.040920Z","label":null,"role":"member","language_code":"en"},{"id":"544f5107231b9f181a46150b","person":{"id":"544f5091231b9f181a46150a","other_names":[],"identifiers":[],"birth_date":null,"death_date":null,"links":[],"contact_details":[],"email":null,"image":null,"created_at":"2015-12-16T06:05:51.078056Z","updated_at":"2015-12-16T06:05:51.078106Z","name":"Rohana Yusof","family_name":null,"given_name":null,"additional_name":null,"honorific_prefix":null,"honorific_suffix":null,"patronymic_name":null,"sort_name":null,"gender":null,"summary":"","biography":"","national_identity":null,"language_code":"en"},"person_id":"544f5091231b9f181a46150a","organization":{"id":"544f4f41231b9f181a461508","parent_id":null,"founding_date":"1949-10-08","dissolution_date":null,"links":[],"contact_details":[],"area":null,"image":"http://upload.wikimedia.org/wikipedia/en/b/b1/Seal_of_the_University_of_Malaya.png","created_at":"2015-12-17T09:12:24.976176Z","updated_at":"2015-12-17T09:12:24.976223Z","parent":null,"name":"University of Malaya","classification":"University","abstract":null,"description":null,"language_code":"en"},"organization_id":"544f4f41231b9f181a461508","member":null,"member_id":null,"on_behalf_of":null,"on_behalf_of_id":null,"area":null,"area_id":null,"post":null,"post_id":null,"contact_details":[],"links":[],"start_date":null,"end_date":null,"created_at":"2015-12-17T09:37:35.584100Z","updated_at":"2015-12-17T09:37:35.584135Z","label":null,"role":"Deputy Vice-Chancellor","language_code":"en"},{"id":"55786021d4d8b75a2cb9659a","person":{"id":"5369aa3df1eab6270da6c908","other_names":[],"identifiers":[],"birth_date":"1941-02-20","death_date":null,"links":[],"contact_details":[],"email":null,"image":"http://limkitsiang.com/images/icons/lks-web2.jpg","created_at":"2015-12-17T08:56:45.820141Z","updated_at":"2015-12-17T08:56:45.820192Z","name":"Lim Kit Siang","family_name":null,"given_name":null,"additional_name":null,"honorific_prefix":null,"honorific_suffix":null,"patronymic_name":null,"sort_name":null,"gender":null,"summary":"Is a prominent leader of the Democratic Action Party (DAP), a Social Democratic opposition party in Malaysia. He is the father of current Chief Minister in the State of Penang, Lim Guan Eng","biography":"","national_identity":null,"language_code":"en"},"person_id":"5369aa3df1eab6270da6c908","organization":{"id":"53631a3619ee29270d8a9e90","parent_id":null,"founding_date":null,"dissolution_date":null,"links":[],"contact_details":[],"area":null,"image":"http://upload.wikimedia.org/wikipedia/en/thumb/d/d1/Democratic_Action_Party_Logo.svg/1000px-Democratic_Action_Party_Logo.svg.png","created_at":"2015-12-17T09:10:55.628913Z","updated_at":"2015-12-17T09:10:55.628945Z","parent":null,"name":"Democratic Action Party","classification":"Party","abstract":null,"description":null,"language_code":"en"},"organization_id":"53631a3619ee29270d8a9e90","member":null,"member_id":null,"on_behalf_of":null,"on_behalf_of_id":null,"area":null,"area_id":null,"post":null,"post_id":null,"contact_details":[],"links":[],"start_date":"2004","end_date":"2008","created_at":"2015-12-17T09:38:01.251393Z","updated_at":"2015-12-17T09:38:01.251450Z","label":null,"role":"Parliament Representative","language_code":"en"},{"id":"55786021d4d8b75a2cb9659b","person":{"id":"5369aa3df1eab6270da6c908","other_names":[],"identifiers":[],"birth_date":"1941-02-20","death_date":null,"links":[],"contact_details":[],"email":null,"image":"http://limkitsiang.com/images/icons/lks-web2.jpg","created_at":"2015-12-17T08:56:45.820141Z","updated_at":"2015-12-17T08:56:45.820192Z","name":"Lim Kit Siang","family_name":null,"given_name":null,"additional_name":null,"honorific_prefix":null,"honorific_suffix":null,"patronymic_name":null,"sort_name":null,"gender":null,"summary":"Is a prominent leader of the Democratic Action Party (DAP), a Social Democratic opposition party in Malaysia. He is the father of current Chief Minister in the State of Penang, Lim Guan Eng","biography":"","national_identity":null,"language_code":"en"},"person_id":"5369aa3df1eab6270da6c908","organization":{"id":"53631a3619ee29270d8a9e90","parent_id":null,"founding_date":null,"dissolution_date":null,"links":[],"contact_details":[],"area":null,"image":"http://upload.wikimedia.org/wikipedia/en/thumb/d/d1/Democratic_Action_Party_Logo.svg/1000px-Democratic_Action_Party_Logo.svg.png","created_at":"2015-12-17T09:10:55.628913Z","updated_at":"2015-12-17T09:10:55.628945Z","parent":null,"name":"Democratic Action Party","classification":"Party","abstract":null,"description":null,"language_code":"en"},"organization_id":"53631a3619ee29270d8a9e90","member":null,"member_id":null,"on_behalf_of":null,"on_behalf_of_id":null,"area":null,"area_id":null,"post":null,"post_id":null,"contact_details":[],"links":[],"start_date":"2008","end_date":"2013","created_at":"2015-12-17T09:38:07.047593Z","updated_at":"2015-12-17T09:38:07.047627Z","label":null,"role":"Parliament Representative","language_code":"en"},{"id":"556db4517b64fdbb3f4162ad","person":{"id":"545e425c5222837c2c058787","other_names":[],"identifiers":[],"birth_date":"1957-10-07","death_date":null,"links":[],"contact_details":[],"email":null,"image":"http://reps.sinarproject.org/mp/tan-kok-wai/view/++widget++form.widgets.picture/@@download/P123-CHERAS.jpg","created_at":"2015-12-16T12:51:21.056398Z","updated_at":"2015-12-16T12:51:21.056451Z","name":"Tan Kok Wai","family_name":null,"given_name":null,"additional_name":null,"honorific_prefix":null,"honorific_suffix":null,"patronymic_name":null,"sort_name":null,"gender":null,"summary":"Tan Kok Wai (born 7 October 1957) is a Malaysian politician and is the Member of the Parliament of Malaysia for the Cheras constituency in the Federal Territory of Kuala Lumpur. He is the National Vice-Chairman of the Democratic Action Party (DAP) in the Pakatan Rakyat opposition coalition.","biography":"","national_identity":null,"language_code":"en"},"person_id":"545e425c5222837c2c058787","organization":{"id":"53631a3619ee29270d8a9e90","parent_id":null,"founding_date":null,"dissolution_date":null,"links":[],"contact_details":[],"area":null,"image":"http://upload.wikimedia.org/wikipedia/en/thumb/d/d1/Democratic_Action_Party_Logo.svg/1000px-Democratic_Action_Party_Logo.svg.png","created_at":"2015-12-17T09:10:55.628913Z","updated_at":"2015-12-17T09:10:55.628945Z","parent":null,"name":"Democratic Action Party","classification":"Party","abstract":null,"description":null,"language_code":"en"},"organization_id":"53631a3619ee29270d8a9e90","member":null,"member_id":null,"on_behalf_of":null,"on_behalf_of_id":null,"area":null,"area_id":null,"post":null,"post_id":null,"contact_details":[],"links":[],"start_date":"2008","end_date":"2013","created_at":"2015-12-17T09:39:26.300293Z","updated_at":"2015-12-17T09:39:26.300333Z","label":null,"role":"Parliament Representative","language_code":"en"},{"id":"556db4517b64fdbb3f4162af","person":{"id":"545e425c5222837c2c058787","other_names":[],"identifiers":[],"birth_date":"1957-10-07","death_date":null,"links":[],"contact_details":[],"email":null,"image":"http://reps.sinarproject.org/mp/tan-kok-wai/view/++widget++form.widgets.picture/@@download/P123-CHERAS.jpg","created_at":"2015-12-16T12:51:21.056398Z","updated_at":"2015-12-16T12:51:21.056451Z","name":"Tan Kok Wai","family_name":null,"given_name":null,"additional_name":null,"honorific_prefix":null,"honorific_suffix":null,"patronymic_name":null,"sort_name":null,"gender":null,"summary":"Tan Kok Wai (born 7 October 1957) is a Malaysian politician and is the Member of the Parliament of Malaysia for the Cheras constituency in the Federal Territory of Kuala Lumpur. He is the National Vice-Chairman of the Democratic Action Party (DAP) in the Pakatan Rakyat opposition coalition.","biography":"","national_identity":null,"language_code":"en"},"person_id":"545e425c5222837c2c058787","organization":{"id":"53631a3619ee29270d8a9e90","parent_id":null,"founding_date":null,"dissolution_date":null,"links":[],"contact_details":[],"area":null,"image":"http://upload.wikimedia.org/wikipedia/en/thumb/d/d1/Democratic_Action_Party_Logo.svg/1000px-Democratic_Action_Party_Logo.svg.png","created_at":"2015-12-17T09:10:55.628913Z","updated_at":"2015-12-17T09:10:55.628945Z","parent":null,"name":"Democratic Action Party","classification":"Party","abstract":null,"description":null,"language_code":"en"},"organization_id":"53631a3619ee29270d8a9e90","member":null,"member_id":null,"on_behalf_of":null,"on_behalf_of_id":null,"area":null,"area_id":null,"post":null,"post_id":null,"contact_details":[],"links":[],"start_date":"2013","end_date":null,"created_at":"2015-12-17T09:39:31.846940Z","updated_at":"2015-12-17T09:39:31.846990Z","label":null,"role":"Parliament Representative","language_code":"en"},{"id":"556db6e4284fae6e7e84743d","person":{"id":"545e425c5222837c2c058787","other_names":[],"identifiers":[],"birth_date":"1957-10-07","death_date":null,"links":[],"contact_details":[],"email":null,"image":"http://reps.sinarproject.org/mp/tan-kok-wai/view/++widget++form.widgets.picture/@@download/P123-CHERAS.jpg","created_at":"2015-12-16T12:51:21.056398Z","updated_at":"2015-12-16T12:51:21.056451Z","name":"Tan Kok Wai","family_name":null,"given_name":null,"additional_name":null,"honorific_prefix":null,"honorific_suffix":null,"patronymic_name":null,"sort_name":null,"gender":null,"summary":"Tan Kok Wai (born 7 October 1957) is a Malaysian politician and is the Member of the Parliament of Malaysia for the Cheras constituency in the Federal Territory of Kuala Lumpur. He is the National Vice-Chairman of the Democratic Action Party (DAP) in the Pakatan Rakyat opposition coalition.","biography":"","national_identity":null,"language_code":"en"},"person_id":"545e425c5222837c2c058787","organization":{"id":"53631a3619ee29270d8a9e90","parent_id":null,"founding_date":null,"dissolution_date":null,"links":[],"contact_details":[],"area":null,"image":"http://upload.wikimedia.org/wikipedia/en/thumb/d/d1/Democratic_Action_Party_Logo.svg/1000px-Democratic_Action_Party_Logo.svg.png","created_at":"2015-12-17T09:10:55.628913Z","updated_at":"2015-12-17T09:10:55.628945Z","parent":null,"name":"Democratic Action Party","classification":"Party","abstract":null,"description":null,"language_code":"en"},"organization_id":"53631a3619ee29270d8a9e90","member":null,"member_id":null,"on_behalf_of":null,"on_behalf_of_id":null,"area":null,"area_id":null,"post":null,"post_id":null,"contact_details":[],"links":[],"start_date":"2014-03-29","end_date":null,"created_at":"2015-12-17T09:39:37.398468Z","updated_at":"2015-12-17T09:39:37.398502Z","label":null,"role":"Acting National Chairman","language_code":"en"},{"id":"556ed3de10fbc10a45e09690","person":{"id":"545e45905222837c2c058f7f","other_names":[],"identifiers":[],"birth_date":"1946-04-24","death_date":null,"links":[],"contact_details":[],"email":null,"image":"http://www.parlimen.gov.my/images/webuser/ahli/2013/P129.jpg","created_at":"2015-12-17T08:51:54.386662Z","updated_at":"2015-12-17T08:51:54.386697Z","name":"Hasan Malek","family_name":null,"given_name":null,"additional_name":null,"honorific_prefix":null,"honorific_suffix":null,"patronymic_name":null,"sort_name":null,"gender":null,"summary":"Dato' Sri Haji Hasan Malek is a Malaysian politician. He is the federal Minister of Domestic Trade Cooperative and Consumerism and the Member of the Parliament of Malaysia for the Kuala Pilah constituency in the State of Negeri Sembilan. He is a member of the United Malays National Organisation (UMNO) party in Malaysia's governing Barisan Nasional coalition.","biography":"","national_identity":null,"language_code":"en"},"person_id":"545e45905222837c2c058f7f","organization":{"id":"5362fcc219ee29270d8a9e22","parent_id":null,"founding_date":null,"dissolution_date":null,"links":[],"contact_details":[],"area":null,"image":"http://upload.wikimedia.org/wikipedia/commons/thumb/5/5f/UMNO_%28Malaysia%29.svg/640px-UMNO_%28Malaysia%29.svg.png","created_at":"2015-12-17T09:10:22.786158Z","updated_at":"2015-12-17T09:10:22.786221Z","parent":null,"name":"United Malays National Organization","classification":"Party","abstract":null,"description":null,"language_code":"en"},"organization_id":"5362fcc219ee29270d8a9e22","member":null,"member_id":null,"on_behalf_of":null,"on_behalf_of_id":null,"area":null,"area_id":null,"post":null,"post_id":null,"contact_details":[],"links":[],"start_date":"2013","end_date":null,"created_at":"2015-12-17T09:39:42.976891Z","updated_at":"2015-12-17T09:39:42.976927Z","label":null,"role":"Parliament Representative","language_code":"en"}],"per_page":10,"num_pages":319,"has_more":true}